2015-11-08 14:39:43  | INFO  | Configuration Result:
[Success] Name AccsysAPIServiceV1
[Success] Description Provides the Accsys Framework access to the Sage CRM database and its records and acts as the in between layer of the Accsys Framework
[Success] ServiceName AccsysAPIServiceV1
2015-11-08 14:39:43  | INFO  | Topshelf v3.1.107.0, .NET Framework v4.0.30319.42000
2015-11-08 14:39:43  | DEBUG | Running as a console application, creating the console host.
2015-11-08 14:39:43  | DEBUG | Starting up as a console application
2015-11-08 14:40:26  | INFO  | Configuration Result:
[Success] Name AccsysAPIServiceV1
[Success] Description Provides the Accsys Framework access to the Sage CRM database and its records and acts as the in between layer of the Accsys Framework
[Success] ServiceName AccsysAPIServiceV1
2015-11-08 14:40:26  | INFO  | Topshelf v3.1.107.0, .NET Framework v4.0.30319.42000
2015-11-08 14:40:26  | DEBUG | Running as a console application, creating the console host.
2015-11-08 14:40:26  | DEBUG | Starting up as a console application
2015-11-08 14:40:37  | ERROR | An exception occurred
System.MissingFieldException: Field not found: 'Nancy.Bootstrapper.NancyBootstrapperLocator.Bootstrapper'.
   at Nancy.Hosting.Self.NancyHost..ctor(Uri[] baseUris)
   at accsys.crmframework.api.NancySelfHost.Start() in l:\Repos\Accsys framework API\Program.cs:line 22
   at accsys.crmframework.api.Program.<Main>b__3(NancySelfHost tc) in l:\Repos\Accsys framework API\Program.cs:line 45
   at Topshelf.ServiceConfiguratorExtensions.<>c__DisplayClass7`1.<WhenStarted>b__6(T service, HostControl control)
   at Topshelf.Builders.DelegateServiceBuilder`1.DelegateServiceHandle.Start(HostControl hostControl)
   at Topshelf.Hosts.ConsoleRunHost.Run()
2015-11-08 14:40:50  | INFO  | Configuration Result:
[Success] Name AccsysAPIServiceV1
[Success] Description Provides the Accsys Framework access to the Sage CRM database and its records and acts as the in between layer of the Accsys Framework
[Success] ServiceName AccsysAPIServiceV1
2015-11-08 14:40:50  | INFO  | Topshelf v3.1.107.0, .NET Framework v4.0.30319.42000
2015-11-08 14:40:50  | DEBUG | Running as a console application, creating the console host.
2015-11-08 14:40:50  | DEBUG | Starting up as a console application
2015-11-08 14:42:52  | INFO  | Configuration Result:
[Success] Name AccsysAPIServiceV1
[Success] Description Provides the Accsys Framework access to the Sage CRM database and its records and acts as the in between layer of the Accsys Framework
[Success] ServiceName AccsysAPIServiceV1
2015-11-08 14:42:52  | INFO  | Topshelf v3.1.107.0, .NET Framework v4.0.30319.42000
2015-11-08 14:42:52  | DEBUG | Running as a console application, creating the console host.
2015-11-08 14:42:52  | DEBUG | Starting up as a console application
2015-11-08 14:44:00  | INFO  | Configuration Result:
[Success] Name AccsysAPIServiceV1
[Success] Description Provides the Accsys Framework access to the Sage CRM database and its records and acts as the in between layer of the Accsys Framework
[Success] ServiceName AccsysAPIServiceV1
2015-11-08 14:44:00  | INFO  | Topshelf v3.1.107.0, .NET Framework v4.0.30319.42000
2015-11-08 14:44:00  | DEBUG | Running as a console application, creating the console host.
2015-11-08 14:44:00  | DEBUG | Starting up as a console application
2015-11-08 14:44:00  | INFO  | MSG: CORE SCRIPTS Has been succesfully loaded
2015-11-08 14:44:20  | INFO  | The AccsysAPIServiceV1 service is now running, press Control+C to exit.
