2015-11-08 09:48:34  | INFO  | Configuration Result:
[Success] Name AccsysAPIServiceV1
[Success] Description Provides the Accsys Framework access to the Sage CRM database and its records and acts as the in between layer of the Accsys Framework
[Success] ServiceName AccsysAPIServiceV1
2015-11-08 09:48:34  | INFO  | Topshelf v3.1.107.0, .NET Framework v4.0.30319.42000
2015-11-08 09:48:34  | DEBUG | Running as a console application, creating the console host.
2015-11-08 09:48:34  | DEBUG | Starting up as a console application
2015-11-08 09:48:35  | INFO  | MSG: CORE SCRIPTS Has been succesfully loaded
2015-11-08 09:48:57  | INFO  | The AccsysAPIServiceV1 service is now running, press Control+C to exit.
2015-11-08 11:01:45  | INFO  | Configuration Result:
[Success] Name AccsysAPIServiceV1
[Success] Description Provides the Accsys Framework access to the Sage CRM database and its records and acts as the in between layer of the Accsys Framework
[Success] ServiceName AccsysAPIServiceV1
2015-11-08 11:01:45  | INFO  | Topshelf v3.1.107.0, .NET Framework v4.0.30319.42000
2015-11-08 11:01:45  | DEBUG | Running as a console application, creating the console host.
2015-11-08 11:01:45  | DEBUG | Starting up as a console application
2015-11-08 11:01:46  | INFO  | MSG: CORE SCRIPTS Has been succesfully loaded
2015-11-08 11:02:06  | INFO  | The AccsysAPIServiceV1 service is now running, press Control+C to exit.
2015-11-08 11:11:50  | INFO  | Configuration Result:
[Success] Name AccsysAPIServiceV1
[Success] Description Provides the Accsys Framework access to the Sage CRM database and its records and acts as the in between layer of the Accsys Framework
[Success] ServiceName AccsysAPIServiceV1
2015-11-08 11:11:50  | INFO  | Topshelf v3.1.107.0, .NET Framework v4.0.30319.42000
2015-11-08 11:11:50  | DEBUG | Running as a console application, creating the console host.
2015-11-08 11:11:50  | DEBUG | Starting up as a console application
2015-11-08 11:11:51  | INFO  | MSG: CORE SCRIPTS Has been succesfully loaded
2015-11-08 11:12:10  | INFO  | The AccsysAPIServiceV1 service is now running, press Control+C to exit.
